{
	"id": "98eac5ef-65de-1ebf-a327-5242fc5ef8c6",
	"name": "Kafka - Magalu",
	"description": "",
	"order": [
		"ea9fbf56-d9c5-d738-329b-cb1005776d73",
		"08d23f15-9d3d-2a83-53d4-73cbcf6b64c4",
		"d9e29ae2-20d2-9f25-ff09-535916896b4d"
	],
	"folders": [],
	"folders_order": [],
	"timestamp": 1629082222254,
	"owner": "3852759",
	"public": false,
	"requests": [
		{
			"id": "08d23f15-9d3d-2a83-53d4-73cbcf6b64c4",
			"headers": "",
			"headerData": [],
			"url": "{{url_config_kafka}}/connectors/${NOME_TOPICO}/status",
			"queryParams": [],
			"preRequestScript": null,
			"pathVariables": {},
			"pathVariableData": [],
			"method": "GET",
			"data": null,
			"dataMode": "params",
			"tests": null,
			"currentHelper": "normal",
			"helperAttributes": {},
			"time": 1629082389966,
			"name": "Find status topic",
			"description": "",
			"collectionId": "98eac5ef-65de-1ebf-a327-5242fc5ef8c6",
			"responses": []
		},
		{
			"id": "d9e29ae2-20d2-9f25-ff09-535916896b4d",
			"headers": "",
			"headerData": [],
			"url": "{{url_config_kafka}}/connectors/${NOME_TOPICO}/tasks",
			"queryParams": [],
			"preRequestScript": null,
			"pathVariables": {},
			"pathVariableData": [],
			"method": "GET",
			"data": null,
			"dataMode": "params",
			"version": 2,
			"tests": null,
			"currentHelper": "normal",
			"helperAttributes": {},
			"time": 1629082426571,
			"name": "Find tasks topic",
			"description": "",
			"collectionId": "98eac5ef-65de-1ebf-a327-5242fc5ef8c6",
			"responses": []
		},
		{
			"id": "ea9fbf56-d9c5-d738-329b-cb1005776d73",
			"headers": "Content-Type: application/json\n",
			"headerData": [
				{
					"key": "Content-Type",
					"value": "application/json",
					"description": "",
					"enabled": true
				}
			],
			"url": "{{url_config_kafka}}/connectors",
			"queryParams": [],
			"preRequestScript": null,
			"pathVariables": {},
			"pathVariableData": [],
			"method": "POST",
			"data": [],
			"dataMode": "raw",
			"tests": null,
			"currentHelper": "normal",
			"helperAttributes": {},
			"time": 1629082364596,
			"name": "Create Topic",
			"description": "",
			"collectionId": "98eac5ef-65de-1ebf-a327-5242fc5ef8c6",
			"responses": [],
			"rawModeData": "{\n  \"name\": \"${NOME}\",\n  \"config\": {\n    \"connector.class\": \"io.confluent.connect.jdbc.JdbcSourceConnector\",\n    \"connection.url\": \"jdbc:mysql://${IP}:3306/${NOME_TABELA}\",\n    \"connection.user\": \"${USUARIO}\",        \n    \"connection.password\": \"${SENHA}\",\n    \"topic.prefix\": \"${PREFIXO}\",\n    \"poll.interval.ms\": 600000,\n    \"mode\": \"timestamp\",\n    \"query\": \"${CONSULTA SQL}\",\n    \"timestamp.column.name\": \"modified\",\n    \"validate.non.null\": false\n  }\n}"
		}
	]
}